1                    U.S. GEOLOGICAL SURVEY MODULAR FINITE-DIFFERENCE GROUND-WATER MODEL
0SAMPLE----3 LAYERS, 15 ROWS, 15 COLUMNS; STEADY STATE; CONSTANT HEADS COLUMN 1, LAYERS 1 AND 2; RECHARGE, WELLS AND DRAINS      
    3 LAYERS        15 ROWS        15 COLUMNS
   1 STRESS PERIOD(S) IN SIMULATION
 MODEL TIME UNIT IS SECONDS
0I/O UNITS:
 ELEMENT OF IUNIT:  1  2  3  4  5  6  7  8  9 10 11 12 13 14 15 16 17 18 19 20 21 22 23 24
         I/O UNIT: 11 12 13  0  0  0  0 18 19  0  0  0  0  0  0  0  0  0  0  0  0  0  0  0
0BAS1 -- BASIC MODEL PACKAGE, VERSION 1, 9/1/87 INPUT READ FROM UNIT  5
 ARRAYS RHS AND BUFF WILL SHARE MEMORY.
 START HEAD WILL NOT BE SAVED -- DRAWDOWN CANNOT BE CALCULATED
     5892 ELEMENTS IN X ARRAY ARE USED BY BAS
     5892 ELEMENTS OF X ARRAY USED OUT OF 1500000
0BCF3 -- BLOCK-CENTERED FLOW PACKAGE, VERSION 3, 7/9/92 INPUT READ FROM UNIT 11
 STEADY-STATE SIMULATION
 HEAD AT CELLS THAT CONVERT TO DRY=  0.10000E+31
 WETTING CAPABILITY IS NOT ACTIVE
      LAYER  AQUIFER TYPE    INTERBLOCK T
      -------------------------------------
         1         1         0-HARMONIC    
         2         0         0-HARMONIC    
         3         0         0-HARMONIC    
      453 ELEMENTS IN X ARRAY ARE USED BY BCF
     6345 ELEMENTS OF X ARRAY USED OUT OF 1500000
0WEL1 -- WELL PACKAGE, VERSION 1, 9/1/87 INPUT READ FROM 12
 MAXIMUM OF   15 WELLS
       60 ELEMENTS IN X ARRAY ARE USED FOR WELLS
     6405 ELEMENTS OF X ARRAY USED OUT OF 1500000
0DRN1 -- DRAIN PACKAGE, VERSION 1, 9/1/87 INPUT READ FROM UNIT 13
 MAXIMUM OF    9 DRAINS
       45 ELEMENTS IN X ARRAY ARE USED FOR DRAINS
     6450 ELEMENTS OF X ARRAY USED OUT OF 1500000
0RCH1 -- RECHARGE PACKAGE, VERSION 1, 9/1/87 INPUT READ FROM UNIT 18
 OPTION 1 -- RECHARGE TO TOP LAYER
      225 ELEMENTS OF X ARRAY USED FOR RECHARGE
     6675 ELEMENTS OF X ARRAY USED OUT OF 1500000
0SIP1 -- STRONGLY IMPLICIT PROCEDURE SOLUTION PACKAGE, VERSION 1, 9/1/87 INPUT READ FROM UNIT 19
 MAXIMUM OF  50 ITERATIONS ALLOWED FOR CLOSURE
  5 ITERATION PARAMETERS
     2905 ELEMENTS IN X ARRAY ARE USED BY SIP
     9580 ELEMENTS OF X ARRAY USED OUT OF 1500000
1SAMPLE----3 LAYERS, 15 ROWS, 15 COLUMNS; STEADY STATE; CONSTANT HEADS COLUMN 1, LAYERS 1 AND 2; RECHARGE, WELLS AND DRAINS      
0


                                        BOUNDARY ARRAY FOR LAYER  1 WILL BE READ ON UNIT  5 USING FORMAT: (15I3)              
                              ------------------------------------------------------------------------------------------------

        1   2   3   4   5   6   7   8   9  10  11  12  13  14  15
 .....................................................................
0  1   -1   1   1   1   1   1   1   1   1   1   1   1   1   1   1
0  2   -1   1   1   1   1   1   1   1   1   1   1   1   1   1   1
0  3   -1   1   1   1   1   1   1   1   1   1   1   1   1   1   1
0  4   -1   1   1   1   1   1   1   1   1   1   1   1   1   1   1
0  5   -1   1   1   1   1   1   1   1   1   1   1   1   1   1   1
0  6   -1   1   1   1   1   1   1   1   1   1   1   1   1   1   1
0  7   -1   1   1   1   1   1   1   1   1   1   1   1   1   1   1
0  8   -1   1   1   1   1   1   1   1   1   1   1   1   1   1   1
0  9   -1   1   1   1   1   1   1   1   1   1   1   1   1   1   1
0 10   -1   1   1   1   1   1   1   1   1   1   1   1   1   1   1
0 11   -1   1   1   1   1   1   1   1   1   1   1   1   1   1   1
0 12   -1   1   1   1   1   1   1   1   1   1   1   1   1   1   1
0 13   -1   1   1   1   1   1   1   1   1   1   1   1   1   1   1
0 14   -1   1   1   1   1   1   1   1   1   1   1   1   1   1   1
0 15   -1   1   1   1   1   1   1   1   1   1   1   1   1   1   1
0


                                        BOUNDARY ARRAY FOR LAYER  2 WILL BE READ ON UNIT  5 USING FORMAT: (15I3)              
                              ------------------------------------------------------------------------------------------------

        1   2   3   4   5   6   7   8   9  10  11  12  13  14  15
 .....................................................................
0  1   -1   1   1   1   1   1   1   1   1   1   1   1   1   1   1
0  2   -1   1   1   1   1   1   1   1   1   1   1   1   1   1   1
0  3   -1   1   1   1   1   1   1   1   1   1   1   1   1   1   1
0  4   -1   1   1   1   1   1   1   1   1   1   1   1   1   1   1
0  5   -1   1   1   1   1   1   1   1   1   1   1   1   1   1   1
0  6   -1   1   1   1   1   1   1   1   1   1   1   1   1   1   1
0  7   -1   1   1   1   1   1   1   1   1   1   1   1   1   1   1
0  8   -1   1   1   1   1   1   1   1   1   1   1   1   1   1   1
0  9   -1   1   1   1   1   1   1   1   1   1   1   1   1   1   1
0 10   -1   1   1   1   1   1   1   1   1   1   1   1   1   1   1
0 11   -1   1   1   1   1   1   1   1   1   1   1   1   1   1   1
0 12   -1   1   1   1   1   1   1   1   1   1   1   1   1   1   1
0 13   -1   1   1   1   1   1   1   1   1   1   1   1   1   1   1
0 14   -1   1   1   1   1   1   1   1   1   1   1   1   1   1   1
0 15   -1   1   1   1   1   1   1   1   1   1   1   1   1   1   1
0                                                              BOUNDARY ARRAY =              1 FOR LAYER  3
0AQUIFER HEAD WILL BE SET TO  999.99     AT ALL NO-FLOW NODES (IBOUND=0).
0                                                                INITIAL HEAD =  0.0000000E+00 FOR LAYER  1
0                                                                INITIAL HEAD =  0.0000000E+00 FOR LAYER  2
0                                                                INITIAL HEAD =  0.0000000E+00 FOR LAYER  3
0DEFAULT OUTPUT CONTROL -- THE FOLLOWING OUTPUT COMES AT THE END OF EACH STRESS PERIOD:
 TOTAL VOLUMETRIC BUDGET
           HEAD
0                                                    COLUMN TO ROW ANISOTROPY =   1.000000    
0                                                                        DELR =   5000.000    
0                                                                        DELC =   5000.000    
0                                                       HYD. COND. ALONG ROWS =  0.1000000E-02 FOR LAYER  1
0                                                                      BOTTOM =  -150.0000     FOR LAYER  1
0                                                    VERT HYD COND /THICKNESS =  0.2000000E-07 FOR LAYER  1
0                                                        TRANSMIS. ALONG ROWS =  0.1000000E-01 FOR LAYER  2
0                                                    VERT HYD COND /THICKNESS =  0.1000000E-07 FOR LAYER  2
0                                                        TRANSMIS. ALONG ROWS =  0.2000000E-01 FOR LAYER  3
0


                                                         SOLUTION BY THE STRONGLY IMPLICIT PROCEDURE
                                                         -------------------------------------------
0                                               MAXIMUM ITERATIONS ALLOWED FOR CLOSURE =       50
                                                                ACCELERATION PARAMETER =     1.0000    
                                                     HEAD CHANGE CRITERION FOR CLOSURE =    0.10000E-02
                                                     SIP HEAD CHANGE PRINTOUT INTERVAL =        1
0
    5 ITERATION PARAMETERS CALCULATED FROM SPECIFIED WSEED = 0.00100000 :

            0.0000000E+00  0.8221720E+00  0.9683772E+00  0.9943766E+00  0.9990000E+00
1                                                   STRESS PERIOD NO.   1, LENGTH =   86400.00    
                                                    ----------------------------------------------

                                                    NUMBER OF TIME STEPS =     1

                                                     MULTIPLIER FOR DELT =     1.000

                                                  INITIAL TIME STEP SIZE =   86400.00    
0            15 WELLS
                                                LAYER    ROW    COL    STRESS RATE   WELL NO.
                                                ---------------------------------------------
                                                  3       5     11     -5.0000           1
                                                  2       4      6     -5.0000           2
                                                  2       6     12     -5.0000           3
                                                  1       9      8     -5.0000           4
                                                  1       9     10     -5.0000           5
                                                  1       9     12     -5.0000           6
                                                  1       9     14     -5.0000           7
                                                  1      11      8     -5.0000           8
                                                  1      11     10     -5.0000           9
                                                  1      11     12     -5.0000          10
                                                  1      11     14     -5.0000          11
                                                  1      13      8     -5.0000          12
                                                  1      13     10     -5.0000          13
                                                  1      13     12     -5.0000          14
                                                  1      13     14     -5.0000          15
0

     9 DRAINS
0               LAYER     ROW     COL   ELEVATION   CONDUCTANCE   DRAIN NO.
                ------------------------------------------------------------
                   1        8       2   0.0000E+00     1.000           1
                   1        8       3   0.0000E+00     1.000           2
                   1        8       4    10.00         1.000           3
                   1        8       5    20.00         1.000           4
                   1        8       6    30.00         1.000           5
                   1        8       7    50.00         1.000           6
                   1        8       8    70.00         1.000           7
                   1        8       9    90.00         1.000           8
                   1        8      10    100.0         1.000           9
0                                                                    RECHARGE =  0.3000000E-07
0
    31 ITERATIONS FOR TIME STEP   1 IN STRESS PERIOD  1
0MAXIMUM HEAD CHANGE FOR EACH ITERATION:
0 HEAD CHANGE LAYER,ROW,COL HEAD CHANGE LAYER,ROW,COL HEAD CHANGE LAYER,ROW,COL HEAD CHANGE LAYER,ROW,COL HEAD CHANGE LAYER,ROW,COL
 ------------------------------------------------------------------------------------------------------------------------------------
   -22.41     (  3,  5, 11)   12.48     (  1,  1, 15)   13.39     (  3,  1, 14)   48.21     (  1,  1, 15)   35.91     (  3,  1, 13)
    2.482     (  1,  9, 14)   1.430     (  3, 10, 13)   6.214     (  1, 12, 14)   7.411     (  3, 11, 14)   13.66     (  1, 15, 15)
   0.5503     (  3,  8,  7)  0.4821     (  2,  6,  9)  0.4711     (  3,  5, 10)   2.019     (  1, 11, 14)   2.302     (  3,  5, 13)
   0.1108     (  1, 13, 12)  0.7059E-01 (  3, 12, 11)  0.2819     (  1, 14, 14)  0.3141     (  3, 13, 14)  0.3320     (  1, 15, 15)
   0.7853E-02 (  1, 13, 12)  0.1586E-01 (  2, 11, 11)  0.1777E-01 (  3, 11, 10)  0.7910E-01 (  1, 14, 14)  0.8500E-01 (  3,  7, 14)
   0.4169E-02 (  1, 13, 14)  0.2555E-02 (  3, 14, 15)  0.9769E-02 (  1, 14, 14)  0.1083E-01 (  3, 13, 14)  0.1030E-01 (  1, 15, 15)
   0.2425E-03 (  1, 13, 12)
0
1                      HEAD IN LAYER  1 AT END OF TIME STEP  1 IN STRESS PERIOD  1
           -----------------------------------------------------------------------

            1           2           3           4           5           6           7           8           9          10
           11          12          13          14          15
 .............................................................................................................................
0  1   0.0000E+00   24.94       44.01       59.26       71.82       82.52       91.91       100.0       106.9       112.6    
        117.4       121.3       124.3       126.4       127.4    
0  2   0.0000E+00   24.45       43.10       57.98       70.17       80.57       90.12       98.40       105.3       111.0    
        115.7       119.6       122.7       124.9       126.1    
0  3   0.0000E+00   23.45       41.30       55.43       66.78       76.21       86.51       95.20       102.2       107.6    
        112.0       116.1       119.6       122.1       123.4    
0  4   0.0000E+00   21.92       38.61       51.75       61.79       68.03       81.34       90.75       97.64       102.5    
        106.1       110.7       114.9       117.9       119.4    
0  5   0.0000E+00   19.73       34.92       47.32       57.69       66.74       77.09       85.76       92.22       96.15    
        97.29       103.1       108.8       112.5       114.3    
0  6   0.0000E+00   16.51       29.50       40.90       51.30       61.21       71.19       79.85       86.47       90.82    
        93.03       94.23       102.1       106.4       108.4    
0  7   0.0000E+00   11.55       21.10       31.21       41.40       51.84       63.08       72.68       79.95       84.92    
        88.60       91.66       96.43       99.82       101.8    
0  8   0.0000E+00   3.483       6.832       16.25       26.30       36.97       52.59       64.31       72.52       77.25    
        81.99       85.00       89.27       91.72       94.33    
0  9   0.0000E+00   10.54       19.11       28.12       36.92       45.27       52.95       55.38       65.15       66.07    
        73.93       73.79       80.84       80.17       86.49    
0 10   0.0000E+00   14.62       25.86       35.38       43.49       50.11       54.93       57.55       62.95       65.55    
        70.39       72.44       76.72       78.26       81.79    
0 11   0.0000E+00   17.11       29.96       40.01       47.78       53.24       55.81       53.33       60.27       59.29    
        66.43       65.45       72.22       71.04       77.62    
0 12   0.0000E+00   18.68       32.56       43.07       50.81       55.92       58.33       58.47       61.93       63.18    
        67.12       68.50       72.29       73.46       76.85    
0 13   0.0000E+00   19.67       34.24       45.14       53.01       58.04       59.91       56.75       62.59       60.91    
        67.22       65.75       71.90       70.35       76.48    
0 14   0.0000E+00   20.27       35.27       46.48       54.61       60.08       63.17       64.52       67.25       68.79    
        71.64       73.18       75.84       77.03       79.09    
0 15   0.0000E+00   20.56       35.78       47.16       55.48       61.26       65.02       67.52       69.94       72.01    
        74.29       76.22       78.22       79.66       80.82    
1                      HEAD IN LAYER  2 AT END OF TIME STEP  1 IN STRESS PERIOD  1
           -----------------------------------------------------------------------

            1           2           3           4           5           6           7           8           9          10
           11          12          13          14          15
 .............................................................................................................................
0  1   0.0000E+00   24.66       43.73       59.02       71.61       82.32       91.72       99.86       106.7       112.5    
        117.2       121.1       124.1       126.2       127.3    
0  2   0.0000E+00   24.17       42.83       57.74       69.95       80.36       89.93       98.22       105.1       110.8    
        115.5       119.4       122.6       124.8       125.9    
0  3   0.0000E+00   23.17       41.03       55.19       66.53       75.77       86.29       95.02       102.0       107.4    
        111.8       116.0       119.5       121.9       123.2    
0  4   0.0000E+00   21.65       38.34       51.50       61.35       60.17       80.90       90.55       97.45       102.3    
        105.4       110.4       114.8       117.7       119.2    
0  5   0.0000E+00   19.48       34.65       47.07       57.44       66.30       76.85       85.57       92.00       95.41    
        91.09       102.1       108.6       112.4       114.2    
0  6   0.0000E+00   16.27       29.24       40.65       51.07       60.98       70.98       79.65       86.28       90.54    
        92.06       86.23       101.7       106.2       108.3    
0  7   0.0000E+00   11.38       20.95       31.05       41.25       51.70       62.90       72.48       79.76       84.73    
        88.35       91.24       96.22       99.65       101.6    
0  8   0.0000E+00   4.209       8.330       17.58       27.58       38.25       52.94       64.19       72.34       77.12    
        81.81       84.86       89.10       91.59       94.17    
0  9   0.0000E+00   10.38       18.96       27.98       36.79       45.16       52.86       56.13       65.08       66.79    
        73.87       74.48       80.77       80.84       86.38    
0 10   0.0000E+00   14.40       25.61       35.15       43.27       49.91       54.76       57.48       62.79       65.49    
        70.24       72.37       76.57       78.20       81.64    
0 11   0.0000E+00   16.87       29.70       39.78       47.56       53.05       55.68       54.09       60.20       60.04    
        66.37       66.18       72.16       71.75       77.51    
0 12   0.0000E+00   18.43       32.31       42.85       50.60       55.73       58.16       58.41       61.78       63.12    
        66.98       68.44       72.15       73.40       76.69    
0 13   0.0000E+00   19.42       33.98       44.91       52.80       57.85       59.78       57.50       62.53       61.65    
        67.16       66.48       71.84       71.06       76.37    
0 14   0.0000E+00   20.02       35.02       46.26       54.41       59.88       62.99       64.39       67.08       68.66    
        71.48       73.06       75.68       76.91       78.93    
0 15   0.0000E+00   20.30       35.52       46.94       55.28       61.07       64.84       67.34       69.76       71.84    
        74.11       76.04       78.04       79.49       80.65    
1                      HEAD IN LAYER  3 AT END OF TIME STEP  1 IN STRESS PERIOD  1
           -----------------------------------------------------------------------

            1           2           3           4           5           6           7           8           9          10
           11          12          13          14          15
 .............................................................................................................................
0  1    1.800       24.34       43.36       58.70       71.33       82.06       91.48       99.63       106.5       112.3    
        117.0       120.9       123.9       126.0       127.1    
0  2    1.764       23.85       42.46       57.42       69.66       80.07       89.68       97.99       104.9       110.6    
        115.3       119.2       122.4       124.6       125.7    
0  3    1.691       22.86       40.67       54.87       66.20       75.28       85.98       94.77       101.7       107.2    
        111.5       115.7       119.3       121.7       123.0    
0  4    1.578       21.35       37.98       51.17       60.85       62.69       80.41       90.28       97.19       101.9    
        104.1       110.0       114.5       117.5       119.0    
0  5    1.415       19.18       34.30       46.75       57.10       65.80       76.54       85.30       91.67       94.17    
        77.46       100.7       108.2       112.1       114.0    
0  6    1.176       15.99       28.91       40.33       50.76       60.67       70.70       79.38       86.01       90.12    
        90.60       88.55       101.2       106.0       108.0    
0  7   0.8273       11.21       20.79       30.88       41.09       51.55       62.67       72.22       79.50       84.46    
        87.98       90.77       95.94       99.41       101.4    
0  8   0.4331       5.131       10.19       19.27       29.19       39.84       53.40       64.07       72.11       76.95    
        81.58       84.68       88.88       91.44       93.95    
0  9   0.7543       10.22       18.82       27.84       36.66       45.06       52.78       57.03       65.02       67.64    
        73.81       75.31       80.72       81.64       86.24    
0 10    1.039       14.13       25.29       34.85       42.99       49.65       54.54       57.44       62.61       65.44    
        70.05       72.33       76.39       78.15       81.43    
0 11    1.224       16.59       29.37       39.47       47.28       52.79       55.53       55.01       60.16       60.94    
        66.33       67.06       72.13       72.60       77.38    
0 12    1.341       18.15       31.97       42.54       50.32       55.47       57.94       58.37       61.60       63.08    
        66.80       68.41       71.97       73.36       76.49    
0 13    1.415       19.14       33.65       44.61       52.53       57.60       59.63       58.39       62.48       62.54    
        67.12       67.35       71.80       71.90       76.24    
0 14    1.460       19.73       34.68       45.96       54.13       59.63       62.76       64.24       66.87       68.52    
        71.27       72.91       75.47       76.77       78.71    
0 15    1.481       20.01       35.18       46.63       55.00       60.81       64.59       67.11       69.52       71.61    
        73.87       75.82       77.81       79.27       80.42    
0


                              VOLUMETRIC BUDGET FOR ENTIRE MODEL AT END OF TIME STEP  1 IN STRESS PERIOD  1
                              -----------------------------------------------------------------------------
0                   CUMULATIVE VOLUMES      L**3                                     RATES FOR THIS TIME STEP      L**3/T
                    ------------------                                               ------------------------

                          IN:                                                                    IN:
                          ---                                                                    ---
                            STORAGE =   0.00000E+00                                                STORAGE =   0.00000E+00
                      CONSTANT HEAD =   0.00000E+00                                          CONSTANT HEAD =   0.00000E+00
                              WELLS =   0.00000E+00                                                  WELLS =   0.00000E+00
                             DRAINS =   0.00000E+00                                                 DRAINS =   0.00000E+00
                           RECHARGE =   0.13608E+08                                               RECHARGE =    157.50    
0                          TOTAL IN =   0.13608E+08                                               TOTAL IN =    157.50    
0                        OUT:                                                                   OUT:
                         ----                                                                   ----
                            STORAGE =   0.00000E+00                                                STORAGE =   0.00000E+00
                      CONSTANT HEAD =   0.43265E+07                                          CONSTANT HEAD =    50.075    
                              WELLS =   0.64800E+07                                                  WELLS =    75.000    
                             DRAINS =   0.28011E+07                                                 DRAINS =    32.420    
                           RECHARGE =   0.00000E+00                                               RECHARGE =   0.00000E+00
0                         TOTAL OUT =   0.13608E+08                                              TOTAL OUT =    157.50    
0                          IN - OUT =    397.00                                                   IN - OUT =   0.45929E-02
0               PERCENT DISCREPANCY =                0.00                              PERCENT DISCREPANCY =                0.00



0


          TIME SUMMARY AT END OF TIME STEP  1 IN STRESS PERIOD  1
                               SECONDS        MINUTES         HOURS          DAYS           YEARS
                           ---------------------------------------------------------------------------
      TIME STEP LENGTH         86400.0        1440.00        24.0000        1.00000       0.273785E-02
    STRESS PERIOD TIME         86400.0        1440.00        24.0000        1.00000       0.273785E-02
 TOTAL SIMULATION TIME         86400.0        1440.00        24.0000        1.00000       0.273785E-02
1
